week-4-forecast | GOV 1347: Election Analytics Blog
…
There is no visible trend of states that consistently vote for incumbent parties or consistently vote for challenger party candidates. So I decided to calculate the percentages of times since 1948 that each state has voted for an incumbent party’s candidate. The results are in the table below:

state_votes2 <- state_votes %>% group_by(state) %>% count(state_voted_incumbent) %>% filter(state_voted_incumbent==T) %>% select(state, n) %>% mutate(pct_incumbent=n/18) %>% arrange(desc(pct_incumbent))

state_votes2

## # A tibble: 51 × 3
## # Groups:   state [51]
##    state          n pct_incumbent
##    <chr>      <int>         <dbl>
##  1 California    12         0.667
##  2 Florida       12         0.667
##  3 Idaho         12         0.667
##  4 Iowa          12         0.667
##  5 Kentucky      12         0.667
##  6 Maine         12         0.667
##  7 New Mexico    12         0.667
##  8 Oklahoma      12         0.667
##  9 Utah          12         0.667
## 10 Virginia      12         0.667
## # ℹ 41 more rows
…
